augment method for ypreg (Yang & Prentice) models — augment.ypreg • sobrevivencia
…
.resid.deviance
deviance residuals, or NA when newdata
is supplied.

    Examples

library(survival)
library(survstan)
fit <- ypreg(Surv(futime, fustat) ~ age + rx, data = ovarian, dist = "weibull")

# Augment training data
augment(fit)
#> # A tibble: 26 × 11
#>    .time .event   age    rx .fitted.short .se.fit.short .fitted.long
#>    <dbl>  <dbl> <dbl> <dbl>         <dbl>         <dbl>        <dbl>
#>  1    59      1  72.3     1          18.7          9.76       -1.13 
#>  2   115      1  74.5     1          19.4         10.1        -1.16 
#>  3   156      1  66.5     1          17.0          8.85       -1.05 
#>  4   421      0  53.4     2          10.7          5.66       -1.08 
#>  5   431      1  50.3     1          12.3          6.36       -0.845
#>  6   448      0  56.4     1          14.1          7.30       -0.923
#>  7   464      1  56.9     2          11.7          6.16       -1.13 
#>  8   475      1  59.9     2          12.6          6.58       -1.17 
#>  9   477      0  64.2     1          16.3          8.50       -1.02 
#> 10   563      1  55.2     2          11.2          5.92       -1.11 
#> # ℹ 16 more rows
#> # ℹ 4 more variables: .se.fit.long <dbl>, .resid.coxsnell <dbl>,
#> #   .resid.martingale <dbl>, .resid.deviance <dbl>
…
